{
  "project_info": {
    "project_number": "565989794319",
    "firebase_url": "https://astra-property-2.firebaseio.com",
    "project_id": "astra-property-2",
    "storage_bucket": "astra-property-2.appspot.com"
  },
  "client": [
    {
      "client_info": {
        "mobilesdk_app_id": "1:565989794319:android:fac44da4638cb659",
        "android_client_info": {
          "package_name": "com.astraproperty"
        }
      },
      "oauth_client": [
        {
          "client_id": "565989794319-df87hfkjfvcajmgm4628ipdhbllcjdc6.apps.googleusercontent.com",
          "client_type": 3
        }
      ],
      "api_key": [
        {
          "current_key": "AIzaSyDSYjUc6oRUzDj-J8pQE85mLcsO-gD1ato"
        }
      ],
      "services": {
        "analytics_service": {
          "status": 1
        },
        "appinvite_service": {
          "status": 1,
          "other_platform_oauth_client": []
        },
        "ads_service": {
          "status": 2
        }
      }
    }
  ],
  "configuration_version": "1"
}